What's your favorite upper bound? 
Think of a number in [1, 8]. But don't tell me. I will read your mind!

[1,3,5,7]
Is your number in this list? y/[n]? 
[2,3,6,7]
Is your number in this list? y/[n]? 
[4,5,6,7]
Is your number in this list? y/[n]? 
[8]
Is your number in this list? y/[n]? 
Your number is 15.
