My preferred source for news is [1]. Before going
out in public, however, I always check [2]
so I don't make a fool of myself. When I need a pick-me-up, I'll
go to [3].

[1]: http://facebook.com
[2]: http://www.aljazeera.com/
[3]: https://www.happynews.com
