If you are feeling lonely, do not post to [1]. They will only exacerbate your loneliness.
[2] will also make you feel lonely.
The best thing to do is study at [3] and then move some place different.

[1]: https://www.reddit.com
[2]: http://lonely.com
[3]: https://www.duolingo.com/
